[{"line":1,"elements":[{"line":2,"name":"send api request with token","description":"","id":"send-api-request-with-token","type":"scenario","keyword":"Scenario","steps":[{"name":"def query = {status: 'active', gender: 'male'}","result":{"duration":1175700,"status":"passed"},"match":{"location":"karate","arguments":[]},"keyword":"*","line":3},{"name":"url baseUrl + '\/public\/v1\/users'","result":{"duration":2492900,"status":"passed"},"match":{"location":"karate","arguments":[]},"keyword":"Given","line":4},{"name":"header Authorization = 'Bearer ' + tokenID","result":{"duration":2349300,"status":"passed"},"match":{"location":"karate","arguments":[]},"keyword":"And","line":5},{"name":"params query","result":{"duration":153700,"status":"passed"},"match":{"location":"karate","arguments":[]},"keyword":"And","line":7},{"name":"method GET","result":{"duration":3930461900,"status":"passed"},"match":{"location":"karate","arguments":[]},"keyword":"When","line":8,"doc_string":{"content_type":"","value":"17:12:55.300 request:\n1 > GET https:\/\/gorest.co.in\/public\/v1\/users?status=active&gender=male\n1 > Accept-Encoding: gzip,deflate\n1 > Authorization: Bearer 5b62f89b0056585969f112bc3d07f726481559fab42599241dcab33d2b9f6d2e\n1 > Connection: Keep-Alive\n1 > Host: gorest.co.in\n1 > User-Agent: Apache-HttpClient\/4.5.12 (Java\/13)\n\n17:12:59.048 response time in milliseconds: 3744.19\n1 < 200\n1 < Cache-Control: max-age=0, private, must-revalidate\n1 < Connection: keep-alive\n1 < Content-Type: application\/json; charset=utf-8\n1 < Date: Thu, 27 Jan 2022 16:12:58 GMT\n1 < ETag: W\/\"8065551a0050583ad494910215ec704e\"\n1 < Referrer-Policy: strict-origin-when-cross-origin\n1 < Server: nginx\n1 < Strict-Transport-Security: max-age=63072000; includeSubDomains\n1 < Transfer-Encoding: chunked\n1 < Vary: [Accept-Encoding, Origin]\n1 < X-Content-Type-Options: nosniff\n1 < X-Download-Options: noopen\n1 < X-Frame-Options: SAMEORIGIN\n1 < X-Permitted-Cross-Domain-Policies: none\n1 < X-RateLimit-Limit: 90\n1 < X-RateLimit-Remaining: 89\n1 < X-RateLimit-Reset: 1\n1 < X-Request-Id: 6f9ced11-b289-49f2-9279-915ffc3fef73\n1 < X-Runtime: 0.022039\n1 < X-XSS-Protection: 0\n{\"meta\":{\"pagination\":{\"total\":195,\"pages\":10,\"page\":1,\"limit\":20,\"links\":{\"previous\":null,\"current\":\"https:\/\/gorest.co.in\/public\/v1\/users?page=1\",\"next\":\"https:\/\/gorest.co.in\/public\/v1\/users?page=2\"}}},\"data\":[{\"id\":852,\"name\":\"Akroor Patil\",\"email\":\"akroor_patil@schumm.co\",\"gender\":\"male\",\"status\":\"active\"},{\"id\":848,\"name\":\"Dr. Suryakant Varma\",\"email\":\"suryakant_varma_dr@klocko.info\",\"gender\":\"male\",\"status\":\"active\"},{\"id\":839,\"name\":\"Damayanti Banerjee\",\"email\":\"banerjee_damayanti@dach-hermann.net\",\"gender\":\"male\",\"status\":\"active\"},{\"id\":837,\"name\":\"Rep. Adwitiya Rana\",\"email\":\"adwitiya_rana_rep@braun.info\",\"gender\":\"male\",\"status\":\"active\"},{\"id\":834,\"name\":\"Aayushman Dutta\",\"email\":\"dutta_aayushman@dickens.net\",\"gender\":\"male\",\"status\":\"active\"},{\"id\":826,\"name\":\"Charuchandra Desai\",\"email\":\"desai_charuchandra@hermiston-hermann.co\",\"gender\":\"male\",\"status\":\"active\"},{\"id\":815,\"name\":\"Ajeet Rana\",\"email\":\"ajeet_rana@weimann-koelpin.org\",\"gender\":\"male\",\"status\":\"active\"},{\"id\":813,\"name\":\"Deepali Iyer\",\"email\":\"iyer_deepali@oberbrunner-kihn.com\",\"gender\":\"male\",\"status\":\"active\"},{\"id\":811,\"name\":\"Ahalya Kaur\",\"email\":\"kaur_ahalya@adams.net\",\"gender\":\"male\",\"status\":\"active\"},{\"id\":809,\"name\":\"Gudakesa Jha\",\"email\":\"jha_gudakesa@haley-swift.com\",\"gender\":\"male\",\"status\":\"active\"},{\"id\":802,\"name\":\"Gayatri Dwivedi\",\"email\":\"dwivedi_gayatri@cartwright.name\",\"gender\":\"male\",\"status\":\"active\"},{\"id\":797,\"name\":\"Anish Menon JD\",\"email\":\"anish_menon_jd@braun-halvorson.name\",\"gender\":\"male\",\"status\":\"active\"},{\"id\":790,\"name\":\"Deeptimayee Bhattacharya\",\"email\":\"bhattacharya_deeptimayee@roob.co\",\"gender\":\"male\",\"status\":\"active\"},{\"id\":782,\"name\":\"Chandraprabha Chopra\",\"email\":\"chopra_chandraprabha@barton.io\",\"gender\":\"male\",\"status\":\"active\"},{\"id\":780,\"name\":\"Prof. Brajendra Guneta\",\"email\":\"guneta_prof_brajendra@gislason.info\",\"gender\":\"male\",\"status\":\"active\"},{\"id\":772,\"name\":\"Achyut Deshpande III\",\"email\":\"iii_deshpande_achyut@braun.biz\",\"gender\":\"male\",\"status\":\"active\"},{\"id\":768,\"name\":\"Jagdeep Mukhopadhyay\",\"email\":\"mukhopadhyay_jagdeep@kautzer.info\",\"gender\":\"male\",\"status\":\"active\"},{\"id\":765,\"name\":\"Ajeet Kakkar\",\"email\":\"kakkar_ajeet@jones.info\",\"gender\":\"male\",\"status\":\"active\"},{\"id\":762,\"name\":\"Kartik Achari\",\"email\":\"kartik_achari@wolff-rau.biz\",\"gender\":\"male\",\"status\":\"active\"},{\"id\":760,\"name\":\"Nirbhay Jha\",\"email\":\"nirbhay_jha@goodwin.name\",\"gender\":\"male\",\"status\":\"active\"}]}","line":8}},{"name":"status 200","result":{"duration":20200,"status":"passed"},"match":{"location":"karate","arguments":[]},"keyword":"Then","line":10},{"name":"print response","result":{"duration":484600,"status":"passed"},"match":{"location":"karate","arguments":[]},"keyword":"*","line":11,"doc_string":{"content_type":"","value":"17:12:59.049 [print] {\n  \"data\": [\n    {\n      \"gender\": \"male\",\n      \"name\": \"Akroor Patil\",\n      \"id\": 852,\n      \"email\": \"akroor_patil@schumm.co\",\n      \"status\": \"active\"\n    },\n    {\n      \"gender\": \"male\",\n      \"name\": \"Dr. Suryakant Varma\",\n      \"id\": 848,\n      \"email\": \"suryakant_varma_dr@klocko.info\",\n      \"status\": \"active\"\n    },\n    {\n      \"gender\": \"male\",\n      \"name\": \"Damayanti Banerjee\",\n      \"id\": 839,\n      \"email\": \"banerjee_damayanti@dach-hermann.net\",\n      \"status\": \"active\"\n    },\n    {\n      \"gender\": \"male\",\n      \"name\": \"Rep. Adwitiya Rana\",\n      \"id\": 837,\n      \"email\": \"adwitiya_rana_rep@braun.info\",\n      \"status\": \"active\"\n    },\n    {\n      \"gender\": \"male\",\n      \"name\": \"Aayushman Dutta\",\n      \"id\": 834,\n      \"email\": \"dutta_aayushman@dickens.net\",\n      \"status\": \"active\"\n    },\n    {\n      \"gender\": \"male\",\n      \"name\": \"Charuchandra Desai\",\n      \"id\": 826,\n      \"email\": \"desai_charuchandra@hermiston-hermann.co\",\n      \"status\": \"active\"\n    },\n    {\n      \"gender\": \"male\",\n      \"name\": \"Ajeet Rana\",\n      \"id\": 815,\n      \"email\": \"ajeet_rana@weimann-koelpin.org\",\n      \"status\": \"active\"\n    },\n    {\n      \"gender\": \"male\",\n      \"name\": \"Deepali Iyer\",\n      \"id\": 813,\n      \"email\": \"iyer_deepali@oberbrunner-kihn.com\",\n      \"status\": \"active\"\n    },\n    {\n      \"gender\": \"male\",\n      \"name\": \"Ahalya Kaur\",\n      \"id\": 811,\n      \"email\": \"kaur_ahalya@adams.net\",\n      \"status\": \"active\"\n    },\n    {\n      \"gender\": \"male\",\n      \"name\": \"Gudakesa Jha\",\n      \"id\": 809,\n      \"email\": \"jha_gudakesa@haley-swift.com\",\n      \"status\": \"active\"\n    },\n    {\n      \"gender\": \"male\",\n      \"name\": \"Gayatri Dwivedi\",\n      \"id\": 802,\n      \"email\": \"dwivedi_gayatri@cartwright.name\",\n      \"status\": \"active\"\n    },\n    {\n      \"gender\": \"male\",\n      \"name\": \"Anish Menon JD\",\n      \"id\": 797,\n      \"email\": \"anish_menon_jd@braun-halvorson.name\",\n      \"status\": \"active\"\n    },\n    {\n      \"gender\": \"male\",\n      \"name\": \"Deeptimayee Bhattacharya\",\n      \"id\": 790,\n      \"email\": \"bhattacharya_deeptimayee@roob.co\",\n      \"status\": \"active\"\n    },\n    {\n      \"gender\": \"male\",\n      \"name\": \"Chandraprabha Chopra\",\n      \"id\": 782,\n      \"email\": \"chopra_chandraprabha@barton.io\",\n      \"status\": \"active\"\n    },\n    {\n      \"gender\": \"male\",\n      \"name\": \"Prof. Brajendra Guneta\",\n      \"id\": 780,\n      \"email\": \"guneta_prof_brajendra@gislason.info\",\n      \"status\": \"active\"\n    },\n    {\n      \"gender\": \"male\",\n      \"name\": \"Achyut Deshpande III\",\n      \"id\": 772,\n      \"email\": \"iii_deshpande_achyut@braun.biz\",\n      \"status\": \"active\"\n    },\n    {\n      \"gender\": \"male\",\n      \"name\": \"Jagdeep Mukhopadhyay\",\n      \"id\": 768,\n      \"email\": \"mukhopadhyay_jagdeep@kautzer.info\",\n      \"status\": \"active\"\n    },\n    {\n      \"gender\": \"male\",\n      \"name\": \"Ajeet Kakkar\",\n      \"id\": 765,\n      \"email\": \"kakkar_ajeet@jones.info\",\n      \"status\": \"active\"\n    },\n    {\n      \"gender\": \"male\",\n      \"name\": \"Kartik Achari\",\n      \"id\": 762,\n      \"email\": \"kartik_achari@wolff-rau.biz\",\n      \"status\": \"active\"\n    },\n    {\n      \"gender\": \"male\",\n      \"name\": \"Nirbhay Jha\",\n      \"id\": 760,\n      \"email\": \"nirbhay_jha@goodwin.name\",\n      \"status\": \"active\"\n    }\n  ],\n  \"meta\": {\n    \"pagination\": {\n      \"total\": 195,\n      \"pages\": 10,\n      \"limit\": 20,\n      \"links\": {\n        \"next\": \"https:\/\/gorest.co.in\/public\/v1\/users?page=2\",\n        \"current\": \"https:\/\/gorest.co.in\/public\/v1\/users?page=1\",\n        \"previous\": null\n      },\n      \"page\": 1\n    }\n  }\n}","line":11}},{"name":"print tokenID","result":{"duration":64100,"status":"passed"},"match":{"location":"karate","arguments":[]},"keyword":"*","line":12,"doc_string":{"content_type":"","value":"17:12:59.049 [print] 5b62f89b0056585969f112bc3d07f726481559fab42599241dcab33d2b9f6d2e","line":12}}]}],"name":"src\/test\/java\/features\/authToken.feature","description":"api authentication","id":"api-authentication","keyword":"Feature","uri":"src\/test\/java\/features\/authToken.feature"}]